Estimating Animal Density Using Camera Data • abmi.camera.extras
…
Next, we estimate the density of each species within each WMU.

df_density_summary <- ace_summarise_dens(df_density,
                                         group_id = WMUNIT_NAM,
                                         agg_samp_per = FALSE,
                                         conflevel = 0.9)
#> Warning: The `add` argument of `group_by()` is deprecated as of dplyr 1.0.0.
#> Please use the `.add` argument instead.
#> This warning is displayed once every 8 hours.
#> Call `lifecycle::last_warnings()` to see where this warning was generated.

df_density_summary
#> # A tibble: 22 x 9
#> # Groups:   WMUNIT_NAM, samp_per, common_name [22]
#>    WMUNIT_NAM samp_per common_name occupied n_deployments prop_occupied
#>    <fct>         <dbl> <chr>          <int>         <int>         <dbl>
#>  1 Amisk          2014 Moose              4             4         1    
#>  2 Amisk          2014 White-tail~        4             4         1    
#>  3 Amisk          2018 Moose              6            15         0.4  
#>  4 Amisk          2018 White-tail~       11            15         0.733
#>  5 Beaver Ri~     2016 Moose              6            21         0.286
#>  6 Beaver Ri~     2016 White-tail~       17            21         0.810
#>  7 Beaver Ri~     2017 Moose              4             4         1    
#>  8 Beaver Ri~     2017 White-tail~        4             4         1    
#>  9 Beaver Ri~     2018 Moose              6             9         0.667
#> 10 Beaver Ri~     2018 White-tail~        6             9         0.667
#> # ... with 12 more rows, and 3 more variables: density_avg <dbl>,
#> #   density_lci_0.9 <dbl>, density_uci_0.9 <dbl>
…
